<svg width="24" height="16" viewBox="0 0 24 16" xmlns="http://www.w3.org/2000/svg">
    <polygon fill="#2d2d2d" points="12 1 9 6 15 6" />
    <polygon fill="#2d2d2d" points="12 13 9 8 15 8" />
</svg>
